UNIT_NO
1000
SENSOR_UNIT_NO
1002
ERRO_MIN
1004
OK_MIN
1006
DIAMETER
1008
FLOW_RANGE
1010
FIRM_WARE
1012
ERROR_INFO
1014
POWER_FREKVENCY
1016
UNIT_FLOW
1500
UNIT_VOLUME
1502
UNIT_TEMPERATURE
1504
ACT_LANGUAGE
1506
PASSWORD_USER
2
MEASUREMENT_STATE
2000
AIR_DETECTOR  
2002
AIR_CONSTANT
2004
DATALOGGER_DELETE
2006
DELETE_AUXILIARY_VOLUME
2008
VOLTAGE_DELAY
2010
AVERAGE_SAMPLES
2012
LOW_FLOW_CUTOFF
2014
FLOW_RANGE0
2016
INVERT_FLOW
2018
CURRENT_SET
2020
I_FLOW_MIN
2022
I_FLOW_MAX
2024
CURRENT_MIN
2026
CURRENT_MAX
2028
VOLTAGE_SET
2030
V_FLOW_MIN
2032
V_FLOW_MAX
2034
VOLTAGE_MIN
2036
VOLTAGE_MAX
2038
RELAY_SET
2040
COMPARATOR_MODE
2042
FLOW_1
2044
FLOW_2
2046
HYSTERESIS_1
2048
HYSTERESIS_2
2050
PLUS_Q_POS
2052
PLUS_Q_NEG
2054
DOSING
2056
F_SET
2058
F_FLOW_Q_NEG_MIN
2060
F_FLOW_Q_NEG_MAX
2062
F_MIN_Q_NEG
2064
F_MAX_Q_NEG
2066
SPEAKER_SET
2068
LOAD_DEFAULT_SETTING
2070
PASSWORD_USER0
2072
MODBUS_SLAVE_ADDRESS
2074
MODBUS_BAUDRATE
2076
MODBUS_PARITY
2078
MODBUS_INTERFRAME_SPACING
2080
MODBUS_RESPONSE_DELAY
2082
CLEAN_POWER
2094
CLEAN_TIME
2096
CLEAN_STARTNOW
2098
PASSWORD_SERVICE
4
ERRO_DELETELEAR
3000
OK_DELETE
3002
DELETE_NEGATIVE_VOLUME
3004
DELETE_POSITIVE_VOLUME
3006
DELETE_TOTAL_VOLUME
3008
DEMO
3010
PASSWORD_FACTORY
6
DIAMETER0
4000
UNIT_NO0
4002
ZERO_FLOW
4004
EXCITATION_FREQUENCY
4028
EXCITATION
4030
SERVICE_MODE
4006
SAVE_SETTINGS
4008
PASSWORD_AUTHORIZE
8
PASSWORD_USER1
5000
